/home/faraz/Desktop/IE/CA 2/ca2/src/main/java/org/fn/ie/Nikivery.java
/home/faraz/Desktop/IE/CA 2/ca2/src/main/java/org/fn/ie/Restaurant.java
/home/faraz/Desktop/IE/CA 2/ca2/src/main/java/org/fn/ie/Main.java
/home/faraz/Desktop/IE/CA 2/ca2/src/main/java/org/fn/ie/UserProfile.java
/home/faraz/Desktop/IE/CA 2/ca2/src/main/java/org/fn/ie/Location.java
/home/faraz/Desktop/IE/CA 2/ca2/src/main/java/org/fn/ie/Order.java
/home/faraz/Desktop/IE/CA 2/ca2/src/main/java/org/fn/ie/Food.java
/home/faraz/Desktop/IE/CA 2/ca2/src/main/java/org/fn/ie/Server.java
